Country,Driving side
Abu Dhabi,RIGHT
Afghanistan,RIGHT
Aland Islands,RIGHT
Albania,RIGHT
Algeria,RIGHT
American Samoa,RIGHT
Andorra,RIGHT
Angola,RIGHT
Anguilla,LEFT
Antigua and Barbuda,LEFT
Argentina,RIGHT
Armenia,RIGHT
Aruba,RIGHT
Australia,LEFT
Austria,RIGHT
Azerbaijan,RIGHT
Azores,RIGHT
Bahamas,LEFT
Bahrain,RIGHT
Balearic Islands,RIGHT
Bangladesh,LEFT
Barbados,LEFT
Belarus,RIGHT
Belgium,RIGHT
Belize,RIGHT
Benin,RIGHT
Bermuda,LEFT
Bhutan,LEFT
Bolivia,RIGHT
Bonaire,RIGHT
Bosnia and Herzegovina,RIGHT
Botswana,LEFT
Brazil,RIGHT
British Virgin Islands,LEFT
Brunei,LEFT
Bulgaria,RIGHT
Burkina Faso,RIGHT
Burma,RIGHT
Myanmar,RIGHT
Burundi,RIGHT
Cambodia,RIGHT
Cameroon,RIGHT
Canada,RIGHT
Canary Islands,RIGHT
Cape Verde,RIGHT
Cayman Islands,LEFT
Central African Republic,RIGHT
Chad,RIGHT
Channel Islands,LEFT
Chile,RIGHT
China,RIGHT
Christmas Island,LEFT
Cocos (Keeling) Islands,LEFT
Colombia,RIGHT
Comoros,RIGHT
"Congo,the Democratic Republic of the",RIGHT
Republic of the Congo,RIGHT
Cook Islands,LEFT
Costa Rica,RIGHT
Ivory Coast,RIGHT
Croatia,RIGHT
Cuba,RIGHT
Curaçao,RIGHT
Cyprus,LEFT
North Cyprus,LEFT
Czech Republic,RIGHT
Denmark,RIGHT
Djibouti,RIGHT
Dominica,LEFT
Dominican Republic,RIGHT
Dubai,RIGHT
East Timor,LEFT
Ecuador,RIGHT
Egypt,RIGHT
El Salvador,RIGHT
England,LEFT
Equatorial Guinea,RIGHT
Eritrea,RIGHT
Estonia,RIGHT
Ethiopia,RIGHT
Faeroe Islands,RIGHT
Falkland Islands,LEFT
Fiji,LEFT
Finland,RIGHT
France,RIGHT
French Guiana,RIGHT
French Polynesia,RIGHT
Gabon,RIGHT
Gambia,RIGHT
Gaza Strip,RIGHT
Georgia,RIGHT
Germany,RIGHT
Ghana,RIGHT
Gibraltar,RIGHT
Great Britain,LEFT
Greece,RIGHT
Greenland,RIGHT
Grenada,LEFT
Guadeloupe,RIGHT
Guam,RIGHT
Guatemala,RIGHT
Guernsey,LEFT
Guinea,RIGHT
Guinea-Bissau,RIGHT
Guyana,LEFT
Haiti,RIGHT
Holland,RIGHT
Netherlands,RIGHT
Honduras,RIGHT
Hong Kong,LEFT
Hungary,RIGHT
Iceland,RIGHT
India,LEFT
Indonesia,LEFT
"Iran,Islamic Republic of",RIGHT
Iraq,RIGHT
Ireland,LEFT
Northern Ireland,LEFT
Isle of Man,LEFT
Israel,RIGHT
Italy,RIGHT
Ivory Coast,RIGHT
Jamaica,LEFT
Japan,LEFT
Jersey,LEFT
Jordan,RIGHT
Kazakhstan,RIGHT
Kenya,LEFT
Kiribati,LEFT
"Korea,Democratic People's Republic of",RIGHT
South Korea,RIGHT
Kosovo,RIGHT
Kuwait,RIGHT
Kyrgyzstan,RIGHT
Laos,RIGHT
Latvia,RIGHT
Lebanon,RIGHT
Lesotho,LEFT
Liberia,RIGHT
Libya,RIGHT
Liechtenstein,RIGHT
Lithuania,RIGHT
Luxembourg,RIGHT
Macau,LEFT
North Macedonia,RIGHT
Madagascar,RIGHT
Madeira,RIGHT
Malawi,LEFT
Malaysia,LEFT
Maldives,LEFT
Mali,RIGHT
Malta,LEFT
Marshall Islands,RIGHT
Martinique (French overseas department),RIGHT
Mauritania,RIGHT
Mauritius,LEFT
Mayotte (French overseas department),RIGHT
Mexico,RIGHT
Micronesia,RIGHT
"Moldova,Republic of",RIGHT
Monaco,RIGHT
Mongolia,RIGHT
Montenegro,RIGHT
Montserrat,LEFT
Morocco,RIGHT
Mozambique,LEFT
Myanmar (formerly Burma),RIGHT
Namibia,LEFT
Nauru,LEFT
Nepal,LEFT
Netherlands,RIGHT
New Caledonia (French overseas collectivity),RIGHT
New Zealand,LEFT
Nicaragua,RIGHT
Niger,RIGHT
Nigeria,RIGHT
Niue,LEFT
Norfolk Island,LEFT
North Cyprus,LEFT
"Korea,Democratic People's Republic of",RIGHT
North Macedonia,RIGHT
Northern Ireland,LEFT
Northern Mariana Islands,RIGHT
Norway,RIGHT
Oman,RIGHT
Pakistan,LEFT
Palau,RIGHT
Palestine,RIGHT
Panama,RIGHT
Papua New Guinea,LEFT
Paraguay,RIGHT
Peru,RIGHT
Philippines,RIGHT
Pitcairn Islands,LEFT
Poland,RIGHT
Portugal,RIGHT
Puerto Rico,RIGHT
Qatar,RIGHT
Réunion,RIGHT
Romania,RIGHT
Russia,RIGHT
Rwanda,RIGHT
Saba,RIGHT
Saint Barthélemy,RIGHT
Saint Helena,LEFT
Saint Kitts and Nevis,LEFT
Saint Lucia,LEFT
Saint Martin,RIGHT
Saint Pierre and Miquelon,RIGHT
Saint Vincent and the Grenadines,LEFT
Samoa,LEFT
San Marino,RIGHT
São Tomé and Príncipe,RIGHT
Saudi Arabia,RIGHT
Scotland,LEFT
Senegal,RIGHT
Serbia,RIGHT
Seychelles,LEFT
Sierra Leone,RIGHT
Singapore,LEFT
Sint Eustatius,RIGHT
Sint Maarten,RIGHT
Slovakia,RIGHT
Slovenia,RIGHT
Solomon Islands,LEFT
Somalia,RIGHT
Somaliland,RIGHT
South Africa,LEFT
South Korea,RIGHT
South Sudan,RIGHT
Spain,RIGHT
Sri Lanka,LEFT
Sudan,RIGHT
Suriname,LEFT
Swaziland,LEFT
Sweden,RIGHT
Switzerland,RIGHT
Syria,RIGHT
Tahiti,RIGHT
Taiwan,RIGHT
Tajikistan,RIGHT
"Tanzania,United Republic of",LEFT
Thailand,LEFT
Togo,RIGHT
Tokelau,LEFT
Tonga,LEFT
Trinidad and Tobago,LEFT
Tunisia,RIGHT
Turkey,RIGHT
Turkmenistan,RIGHT
Turks and Caicos Islands,LEFT
Tuvalu,LEFT
Uganda,LEFT
Ukraine,RIGHT
United Arab Emirates,RIGHT
United Kingdom,LEFT
United States,RIGHT
Uruguay,RIGHT
Uzbekistan,RIGHT
Vanuatu,RIGHT
Vatican City,RIGHT
Venezuela,RIGHT
Vietnam,RIGHT
Wales,LEFT
Wallis and Futuna,RIGHT
West Bank,RIGHT
Western Sahara,RIGHT
Yemen,RIGHT
Zambia,LEFT
Zimbabwe,LEFT